# Model-fitting
### Step by step

I've generated a synthetic dataset you can use to follow along with a similar format to one siteyear of my data. The columns are a field **block**, a **plot ID** code, the **C:N** ratio of the aboveground biomass at cover crop termination, the rate of **poultry litter** applied as kg PAN ha<sup>-1</sup>, and the **yield** in Mg ha<sup>-1</sup>. A note on style: throughout, I'll be mixing code and output to the console, but output will always be preceded and succeeded by `###`.

```r
library(readr)

demo_df <- read_csv("https://raw.githubusercontent.com/brianwdavis/liebig/master/demo_df.csv")

demo_df

###
# A tibble: 140 x 5
   block plotID        CN    pl     yield
   <chr>  <chr>     <dbl> <int>     <dbl>
 1     A    A20 10.056345     0 10.137356
 2     A    A44 11.205225    70 11.398971
 3     A    A32 12.892939   140 12.162282
 4     A    A43  9.824288   210  9.623026
 5     A    A17 10.912076   280  9.807880
 6     A    A40 16.991225     0 10.310636
 7     A    A26 17.997817    70 11.345654
 8     A    A27 16.370570   140 11.663027
 9     A    A31 20.448354   210 10.154312
10     A    A45 16.536603   280 12.871359
# ... with 130 more rows
…
