…
###
             beta0        beta1       beta2        beta3
beta0  0.015764828  0.000724643 -0.26287353 -0.010315810
beta1  0.000724643  0.001702747 -0.04134221 -0.000724643
beta2 -0.262873533 -0.041342213  7.26874997  0.262873538
beta3 -0.010315810 -0.000724643  0.26287354  0.010656450
###


rmvn(1000, fixef(demo_fit), vcov(demo_fit), kpnames = T) %>% 
  as_data_frame()
  
###  
# A tibble: 1,000 x 4
      beta0     beta1     beta2      beta3
      <dbl>     <dbl>     <dbl>      <dbl>
 1 1.384270 0.4447768 -23.36637 -0.2559584
 2 1.623660 0.4344525 -26.10855 -0.4140665
 3 1.537214 0.4851915 -24.30450 -0.2957845
 4 1.602308 0.3843402 -24.86724 -0.3647044
 5 1.746162 0.4089032 -26.46807 -0.4207473
 6 1.411716 0.4616296 -23.42540 -0.2681241
 7 1.445341 0.4576628 -24.39756 -0.2893648
 8 1.587089 0.4367224 -25.64430 -0.3428215
 9 1.387170 0.4262968 -20.43595 -0.1381052
10 1.589759 0.4519635 -22.68225 -0.2481625
# ... with 990 more rows  
…
