…
## Generate a grid

The first step to plotting complex models is to generate a grid of all possible independent variable values and the corresponding model predictions. The `modelr` package can help with that. Here we use the ranges of **pl** and **logcn** in the original data, but create sequences along those ranges of 100x100 evenly spaced points.

```r
demo_grid <- 
  data_grid(demo_df_rs %>% ungroup, 
            pl = seq_range(pl, 100), 
            logcn = seq_range(logcn, 100))
       
demo_grid

###
# A tibble: 10,000 x 2
      pl      logcn
   <dbl>      <dbl>
 1     0 0.02225297
 2     0 0.02254721
 3     0 0.02284145
 4     0 0.02313569
 5     0 0.02342993
 6     0 0.02372417
 7     0 0.02401841
 8     0 0.02431264
 9     0 0.02460688
10     0 0.02490112
# ... with 9,990 more rows
…
The `level = 0` argument of `predict` indicates to use the population-level predictions (fixed effects only). If you want to use the fitted values, accounting for the random effects, you can use `level = 1`, but you also need to add `data_grid(..., block, ...)` above. This is helpful if your random effects include siteyears that you want to plot separately, as I did on the poster. However, it will cause problems with plotting everything we've done so far in a single panel, so we're using fixed effects only.

```
demo_grid_aug <- 
  demo_grid %>% 
  mutate(.fixed  = 10 * predict(demo_fit, newdata = ., level = 0),
         CN      = exp(100*logcn),
         pl      = 100*pl,
         CNid    = factor(CN, label = "cn"))
         
demo_grid_aug

###
# A tibble: 10,000 x 5
      pl      logcn    .fixed        CN   CNid
   <dbl>      <dbl>     <dbl>     <dbl> <fctr>
 1     0 0.02225297 10.130499  9.256234    cn1
 2     0 0.02254721 10.059840  9.532635    cn2
 3     0 0.02284145  9.989180  9.817289    cn3
 4     0 0.02313569  9.918521 10.110444    cn4
 5     0 0.02342993  9.847862 10.412352    cn5
 6     0 0.02372417  9.777202 10.723276    cn6
 7     0 0.02401841  9.706543 11.043484    cn7
 8     0 0.02431264  9.635883 11.373254    cn8
 9     0 0.02460688  9.565224 11.712871    cn9
10     0 0.02490112  9.494565 12.062629   cn10
# ... with 9,990 more rows
…
### Finding the frontier

To calculate the position (and uncertainty) for the frontier, we have to use our previously simulated coefficients.

```
demo_mc_coefs

###
# A tibble: 1,000 x 7
      beta0      beta1     beta2      beta3    gamma0   gamma1     Ymax
      <dbl>      <dbl>     <dbl>      <dbl>     <dbl>    <dbl>    <dbl>
 1 16.05794 0.04378062 -2.541802 -3.6357577 -83.04491 58.05769 12.42218
 2 15.61554 0.04580369 -2.209846 -2.1882875 -47.77535 48.24602 13.42725
 3 13.89307 0.04736644 -2.120063 -1.6581159 -35.00613 44.75876 12.23495
 4 13.32746 0.04277710 -2.069687 -2.0840939 -48.71985 48.38306 11.24337
 5 16.98919 0.04694758 -2.812116 -4.3551419 -92.76606 59.89908 12.63405
 6 16.40717 0.04619183 -2.594565 -3.8734240 -83.85518 56.16935 12.53375
 7 13.49385 0.05449645 -2.433052 -2.5298679 -46.42262 44.64606 10.96399
 8 15.77818 0.04188125 -2.463029 -3.4662955 -82.76485 58.80983 12.31189
 9 13.25988 0.04868941 -1.792649 -0.2212544  -4.54420 36.81806 13.03862
10 15.18405 0.04464636 -2.404750 -2.8883076 -64.69302 53.86218 12.29575
# ... with 990 more rows
###
```

For each row (individual simulation), we want to calculate the position of the frontier across the entire range of **CN**. For this particular use, our `demo_grid_aug` is overkill, so we'll make a simpler one:

```r
demo_grid_logcn <- 
  data_grid(demo_df_rs %>% ungroup, 
            logcn = 100*seq_range(logcn, 50))
  
  
demo_grid_logcn 

###
# A tibble: 50 x 1
      logcn
      <dbl>
 1 2.225297
 2 2.284746
 3 2.344194
 4 2.403642
 5 2.463090
 6 2.522538
 7 2.581987
 8 2.641435
 9 2.700883
10 2.760331
# ... with 40 more rows
###
```

Now we'll embed this entire dataframe over and over into each row of our simulated coefficients as a list-column.

```
demo_mc_coefs %>% 
  select(gamma0, gamma1) %>% 
  mutate(grid = list(demo_grid_logcn))
  
###
# A tibble: 1,000 x 3
      gamma0   gamma1              grid
       <dbl>    <dbl>            <list>
 1 -83.04491 58.05769 <tibble [50 x 1]>
 2 -47.77535 48.24602 <tibble [50 x 1]>
 3 -35.00613 44.75876 <tibble [50 x 1]>
 4 -48.71985 48.38306 <tibble [50 x 1]>
 5 -92.76606 59.89908 <tibble [50 x 1]>
 6 -83.85518 56.16935 <tibble [50 x 1]>
 7 -46.42262 44.64606 <tibble [50 x 1]>
 8 -82.76485 58.80983 <tibble [50 x 1]>
 9  -4.54420 36.81806 <tibble [50 x 1]>
10 -64.69302 53.86218 <tibble [50 x 1]>
# ... with 990 more rows
…
These steps can be computationally challenging. Depending on the size of your grid and the size of your coefficient simulation, you may start to get unwieldy numbers of observations quite quickly. I recommend working with a subset of each to figure out how long the operation might take. There are ways to parallelize `dplyr` functions that are beyond the scope of this tutorial. Luckily with this small dataset, the computation is very fast.

We expand out each of the nested dataframes and calculate the **PL** saturation point using the γ coefficients.

```
demo_mc_coefs %>% 
  select(gamma0, gamma1) %>% 
  mutate(grid = list(demo_grid_logcn)) %>% 
  unnest() %>% 
  mutate(pl = gamma0 + gamma1*logcn)
  
###
# A tibble: 50,000 x 4
      gamma0   gamma1    logcn       pl
       <dbl>    <dbl>    <dbl>    <dbl>
 1 -83.04491 58.05769 2.225297 46.15071
 2 -83.04491 58.05769 2.284746 49.60213
 3 -83.04491 58.05769 2.344194 53.05356
 4 -83.04491 58.05769 2.403642 56.50499
 5 -83.04491 58.05769 2.463090 59.95642
 6 -83.04491 58.05769 2.522538 63.40784
 7 -83.04491 58.05769 2.581987 66.85927
 8 -83.04491 58.05769 2.641435 70.31070
 9 -83.04491 58.05769 2.700883 73.76213
10 -83.04491 58.05769 2.760331 77.21355
# ... with 49,990 more rows
…
demo_frontier

###
# A tibble: 50 x 4
      logcn    pl_se       pl        CN
      <dbl>    <dbl>    <dbl>     <dbl>
 1 2.225297 12.03033 54.13358  9.256234
 2 2.284746 11.82072 57.26928  9.823186
 3 2.344194 11.61912 60.40499 10.424865
 4 2.403642 11.42592 63.54070 11.063396
 5 2.463090 11.24158 66.67640 11.741038
 6 2.522538 11.06654 69.81211 12.460187
 7 2.581987 10.90123 72.94782 13.223383
 8 2.641435 10.74612 76.08352 14.033327
 9 2.700883 10.60164 79.21923 14.892879
10 2.760331 10.46824 82.35494 15.805081
# ... with 40 more rows
…
